---- Minecraft Crash Report ----
// I let you down. Sorry :(

Time: 2020-08-04 01:19:00 MSK
Description: Error executing task

java.util.concurrent.ExecutionException: java.lang.NullPointerException
    at java.util.concurrent.FutureTask.report(Unknown Source)
    at java.util.concurrent.FutureTask.get(Unknown Source)
    at net.minecraft.util.Util.runTask(Util.java:531)
    at net.minecraft.client.Minecraft.runGameLoop(Minecraft.java:1088)
    at net.minecraft.client.Minecraft.run(Minecraft.java:3942)
    at net.minecraft.client.main.Main.main(SourceFile:123)
    at sun.reflect.NativeMethodAccessorImpl.invoke0(Native Method)
    at sun.reflect.NativeMethodAccessorImpl.invoke(Unknown Source)
    at sun.reflect.DelegatingMethodAccessorImpl.invoke(Unknown Source)
    at java.lang.reflect.Method.invoke(Unknown Source)
    at net.minecraft.launchwrapper.Launch.launch(Launch.java:135)
    at net.minecraft.launchwrapper.Launch.main(Launch.java:28)
Caused by: java.lang.NullPointerException
    at net.minecraft.client.network.NetHandlerPlayClient.handleTimeUpdate(NetHandlerPlayClient.java:941)
    at net.minecraft.network.play.server.SPacketTimeUpdate.processPacket(SourceFile:41)
    at net.minecraft.network.play.server.SPacketTimeUpdate.processPacket(SourceFile:8)
    at net.minecraft.network.PacketThreadUtil$1.run(PacketThreadUtil.java:22)
    at java.util.concurrent.Executors$RunnableAdapter.call(Unknown Source)
    at java.util.concurrent.FutureTask.run(Unknown Source)
    at net.minecraft.util.Util.runTask(Util.java:529)
    ... 9 more


A detailed walkthrough of the error, its code path and all known details is as follows:
---------------------------------------------------------------------------------------

-- System Details --
  Minecraft Version: 1.12.2
  Operating System: Windows 8.1 (amd64) version 6.3
  Java Version: 1.8.0_45, Oracle Corporation
  Java VM Version: Java HotSpot(TM) 64-Bit Server VM (mixed mode), Oracle Corporation
  Memory: 4040097464 bytes (3852 MB) / 8822718464 bytes (8414 MB) up to 11811160064 bytes (11264 MB)
  JVM Flags: 4 total; -Xms256M -Xmx11264M -XX:HeapDumpPath=MojangTricksIntelDriversForPerformance_javaw.exe_minecraft.exe.heapdump -XX:+UseG1GC
  IntCache: cache: 0, tcache: 6, allocated: 10, tallocated: 82
  FML: MCP 9.42 Powered by Forge 14.23.5.2854 Optifine OptiFine_1.12.2_HD_U_F5 218 mods loaded, 218 mods active
       States: 'U' = Unloaded 'L' = Loaded 'C' = Constructed 'H' = Pre-initialized 'I' = Initialized 'J' = Post-initialized 'A' = Available 'D' = Disabled 'E' = Errored
       
       | State  | ID                                | Version           | Source                                              | Signature                                |
       |:------ |:--------------------------------- |:----------------- |:--------------------------------------------------- |:---------------------------------------- |
       | LCHIJA | minecraft                         | 1.12.2            | minecraft.jar                                       | None                                     |
       | LCHIJA | mcp                               | 9.42              | minecraft.jar                                       | None                                     |
       | LCHIJA | FML                               | 8.0.99.99         | forge-1.12.2-14.23.5.2821-universal.jar             | e3c3d50c7c986df74c645c0ac54639741c90a557 |
       | LCHIJA | forge                             | 14.23.5.2854      | forge-1.12.2-14.23.5.2821-universal.jar             | e3c3d50c7c986df74c645c0ac54639741c90a557 |
       | LCHIJA | foamfixcore                       | 7.7.4             | minecraft.jar                                       | None                                     |
       | LCHIJA | opencomputers|core                | 1.7.4.153         | minecraft.jar                                       | None                                     |
       | LCHIJA | fastbench                         | 1.6.1             | FastWorkbench-1.12.2-1.6.1.jar                      | None                                     |
       | LCHIJA | actuallyadditions                 | 1.12.2-r146       | ActuallyAdditions-1.12.2-r146.jar                   | None                                     |
       | LCHIJA | buildcraftlib                     | 7.99.24.6         | buildcraft-all-7.99.24.6.jar                        | None                                     |
       | LCHIJA | buildcraftcore                    | 7.99.24.6         | buildcraft-all-7.99.24.6.jar                        | None                                     |
       | LCHIJA | buildcraftfactory                 | 7.99.24.6         | buildcraft-all-7.99.24.6.jar                        | None                                     |
       | LCHIJA | buildcrafttransport               | 7.99.24.6         | buildcraft-all-7.99.24.6.jar                        | None                                     |
       | LCHIJA | buildcraftsilicon                 | 7.99.24.6         | buildcraft-all-7.99.24.6.jar                        | None                                     |
       | LCHIJA | additionalpipes                   | 6.0.0.8           | additionalpipes-6.0.0.8.jar                         | None                                     |
       | LCHIJA | ctm                               | MC1.12.2-0.3.3.22 | CTM-MC1.12.2-0.3.3.22.jar                           | None                                     |
       | LCHIJA | appliedenergistics2               | rv6-stable-6      | appliedenergistics2-rv6-stable-6.jar                | dfa4d3ac143316c6f32aa1a1beda1e34d42132e5 |
       | LCHIJA | bdlib                             | 1.14.3.12         | bdlib-1.14.3.12-mc1.12.2.jar                        | None                                     |
       | LCHIJA | ae2stuff                          | 0.7.0.4           | ae2stuff-0.7.0.4-mc1.12.2.jar                       | None                                     |
       | LCHIJA | baubles                           | 1.5.2             | Baubles-1.12-1.5.2.jar                              | None                                     |
       | LCHIJA | endercore                         | 1.12.2-0.5.45     | EnderCore-1.12.2-0.5.45.jar                         | None                                     |
       | LCHIJA | crafttweaker                      | 4.1.15            | CraftTweaker2-1.12-4.1.15.jar                       | None                                     |
       | LCHIJA | mtlib                             | 3.0.6             | MTLib-3.0.6.jar                                     | None                                     |
       | LCHIJA | modtweaker                        | 4.0.16            | modtweaker-4.0.16.jar                               | None                                     |
       | LCHIJA | jei                               | 4.15.0.268        | jei_1.12.2-4.15.0.268.jar                           | None                                     |
       | LCHIJA | codechickenlib                    | 3.2.3.358         | CodeChickenLib_1.12.2_3.2.3.358_universal.jar       | f1850c39b2516232a2108a7bd84d1cb5df93b261 |
       | LCHIJA | redstoneflux                      | 2.1.0             | RedstoneFlux-1.12-2.1.0.6-universal.jar             | 8a6abf2cb9e141b866580d369ba6548732eff25f |
       | LCHIJA | cofhcore                          | 4.6.2             | CoFHCore-1.12.2-4.6.2.25-universal.jar              | None                                     |
       | LCHIJA | cofhworld                         | 1.3.0             | CoFHWorld-1.12.2-1.3.0.6-universal.jar              | 8a6abf2cb9e141b866580d369ba6548732eff25f |
       | LCHIJA | thermalfoundation                 | 2.6.2             | ThermalFoundation-1.12.2-2.6.2.26-universal.jar     | 8a6abf2cb9e141b866580d369ba6548732eff25f |
       | LCHIJA | thermalexpansion                  | 5.5.3             | ThermalExpansion-1.12.2-5.5.3.41-universal.jar      | 8a6abf2cb9e141b866580d369ba6548732eff25f |
       | LCHIJA | enderio                           | 5.0.40            | EnderIO-1.12.2-5.0.40.jar                           | None                                     |
       | LCHIJA | mantle                            | 1.12-1.3.3.42     | Mantle-1.12-1.3.3.42.jar                            | None                                     |
       | LCHIJA | chisel                            | MC1.12.2-0.2.1.35 | Chisel-MC1.12.2-0.2.1.35.jar                        | None                                     |
       | LCHIJA | enderiointegrationtic             | 5.0.40            | EnderIO-1.12.2-5.0.40.jar                           | None                                     |
       | LCHIJA | twilightforest                    | 3.8.689           | twilightforest-1.12.2-3.8.689-universal.jar         | None                                     |
       | LCHIJA | tconstruct                        | 1.12.2-2.12.0.115 | TConstruct-1.12.2-2.12.0.115.jar                    | None                                     |
       | LCHIJA | tesla                             | 1.0.63            | Tesla-1.12.2-1.0.63.jar                             | d476d1b22b218a10d845928d1665d45fce301b27 |
       | LCHIJA | p455w0rdslib                      | 2.0.36            | p455w0rdslib-1.12.2-2.0.36.jar                      | None                                     |
       | LCHIJA | ae2wtlib                          | 1.0.6             | AE2WTLib-1.12.2-1.0.6.jar                           | None                                     |
       | LCHIJA | akashictome                       | 1.2-12            | AkashicTome-1.2-12.jar                              | None                                     |
       | LCHIJA | ambientsounds                     | 3.0               | AmbientSounds_v3.0.9_mc1.12.2.jar                   | None                                     |
       | LCHIJA | appleskin                         | 1.0.9             | AppleSkin-mc1.12-1.0.9.jar                          | None                                     |
       | LCHIJA | aroma1997core                     | 2.0.0.2           | Aroma1997Core-1.12.2-2.0.0.2.jar                    | dfbfe4c473253d8c5652417689848f650b2cbe32 |
       | LCHIJA | aroma1997sdimension               | 2.0.0.2.b89       | Aroma1997s-Dimensional-World-1.12.2-2.0.0.2.b89.jar | dfbfe4c473253d8c5652417689848f650b2cbe32 |
       | LCHIJA | morphtool                         | 1.2-21            | Morph-o-Tool-1.2-21.jar                             | None                                     |
       | LCHIJA | autoreglib                        | 1.3-26            | AutoRegLib-1.3-26.jar                               | None                                     |
       | LCHIJA | badwithernocookiereloaded         | 1.12.2-3.3.16     | badwithernocookiereloaded-1.12.2-3.3.16.jar         | None                                     |
       | LCHIJA | betteradvancements                | 0.1.0.77          | BetterAdvancements-1.12.2-0.1.0.77.jar              | None                                     |
       | LCHIJA | betterbuilderswands               | 0.13.1            | BetterBuildersWands-1.12.2-0.13.1.269+13450ff.jar   | None                                     |
       | LCHIJA | bettercaves                       | 1.12.2            | bettercaves-1.12.2-2.0.1.jar                        | None                                     |
       | LCHIJA | buildcraftenergy                  | 7.99.24.6         | buildcraft-all-7.99.24.6.jar                        | None                                     |
       | LCHIJA | ic2                               | 2.8.220-ex112     | industrialcraft_2_2.8.220_ex112.jar                 | de041f9f6187debbc77034a344134053277aa3b0 |
       | LCHIJA | forestry                          | 5.8.2.387         | forestry_1.12.2-5.8.2.387.jar                       | None                                     |
       | LCHIJA | binniecore                        | 2.5.1.188         | binnie-mods-1.12.2-2.5.1.188.jar                    | None                                     |
       | LCHIJA | binniedesign                      | 2.5.1.188         | binnie-mods-1.12.2-2.5.1.188.jar                    | None                                     |
       | LCHIJA | genetics                          | 2.5.1.188         | binnie-mods-1.12.2-2.5.1.188.jar                    | None                                     |
       | LCHIJA | botany                            | 2.5.1.188         | binnie-mods-1.12.2-2.5.1.188.jar                    | None                                     |
       | LCHIJA | extrabees                         | 2.5.1.188         | binnie-mods-1.12.2-2.5.1.188.jar                    | None                                     |
       | LCHIJA | extratrees                        | 2.5.1.188         | binnie-mods-1.12.2-2.5.1.188.jar                    | None                                     |
       | LCHIJA | biomesoplenty                     | 7.0.1.2425        | BiomesOPlenty-1.12.2-7.0.1.2425-universal.jar       | None                                     |
       | LCHIJA | blockcraftery                     | 1.12.2-1.2.0      | blockcraftery-1.12.2-1.2.0.jar                      | None                                     |
       | LCHIJA | bookshelf                         | 2.3.577           | Bookshelf-1.12.2-2.3.577.jar                        | d476d1b22b218a10d845928d1665d45fce301b27 |
       | LCHIJA | botania                           | r1.10-360         | Botania r1.10-360.jar                               | None                                     |
       | LCHIJA | brandonscore                      | 2.4.9             | BrandonsCore-1.12.2-2.4.9.195-universal.jar         | None                                     |
       | LCHIJA | buildcraftbuilders                | 7.99.24.6         | buildcraft-all-7.99.24.6.jar                        | None                                     |
       | LCHIJA | theoneprobe                       | 1.4.28            | theoneprobe-1.12-1.4.28.jar                         | None                                     |
       | LCHIJA | buildcraftcompat                  | 7.99.24.6         | buildcraft-all-7.99.24.6.jar                        | None                                     |
       | LCHIJA | buildcraftrobotics                | 7.99.24.6         | buildcraft-all-7.99.24.6.jar                        | None                                     |
       | LCHIJA | buildinggadgets                   | 2.6.6             | BuildingGadgets-2.6.6.jar                           | None                                     |
       | LCHIJA | chameleon                         | 1.12-4.1.3        | Chameleon-1.12-4.1.3.jar                            | None                                     |
       | LCHIJA | chickenchunks                     | 2.4.1.73          | ChickenChunks-1.12.2-2.4.1.73-universal.jar         | f1850c39b2516232a2108a7bd84d1cb5df93b261 |
       | LCHIJA | chiselsandbits                    | 14.31             | chiselsandbits-14.31.jar                            | None                                     |
       | LCHIJA | chunkanimator                     | 1.2               | ChunkAnimator-MC1.12-1.2.jar                        | None                                     |
       | LCHIJA | cyclopscore                       | 1.0.6             | CyclopsCore-1.12.2-1.0.6.jar                        | bd0353b3e8a2810d60dd584e256e364bc3bedd44 |
       | LCHIJA | commoncapabilities                | 2.1.0             | CommonCapabilities-1.12.2-2.1.0.jar                 | bd0353b3e8a2810d60dd584e256e364bc3bedd44 |
       | LCHIJA | refinedstorage                    | 1.6.12            | refinedstorage-1.6.12.jar                           | 57893d5b90a7336e8c63fe1c1e1ce472c3d59578 |
       | LCHIJA | compactmachines3                  | 3.0.15            | compactmachines3-1.12.2-3.0.15-b249.jar             | None                                     |
       | LCHIJA | compactsolars                     | 1.12.2-5.0.18.341 | CompactSolars-1.12.2-5.0.18.341-universal.jar       | None                                     |
       | LCHIJA | controlling                       | 3.0.6             | Controlling-3.0.6.jar                               | None                                     |
       | LCHIJA | cookingforblockheads              | 6.4.69            | CookingForBlockheads_1.12.2-6.4.69.jar              | None                                     |
       | LCHIJA | ctgui                             | 1.0.0             | CraftTweaker2-1.12-4.1.15.jar                       | None                                     |
       | LCHIJA | crafttweakerjei                   | 2.0.2             | CraftTweaker2-1.12-4.1.15.jar                       | None                                     |
       | LCHIJA | custommainmenu                    | 2.0.9             | CustomMainMenu-MC1.12.2-2.0.9.jar                   | None                                     |
       | LCHIJA | waila                             | 1.8.26            | Hwyla-1.8.26-B41_1.12.2.jar                         | None                                     |
       | LCHIJA | stg                               | 1.12.2-1.2.3      | stg-1.12.2-1.2.3.jar                                | None                                     |
       | LCHIJA | danknull                          | 1.4.46            | DankNull-1.12-1.4.46.jar                            | None                                     |
       | LCHIJA | darkutils                         | 1.8.223           | DarkUtils-1.12.2-1.8.223.jar                        | d476d1b22b218a10d845928d1665d45fce301b27 |
       | LCHIJA | eleccore                          | 1.9.453           | ElecCore-1.12.2-1.9.453.jar                         | None                                     |
       | LCHIJA | mcjtylib_ng                       | 3.1.1             | mcjtylib-1.12-3.1.1.jar                             | None                                     |
       | LCHIJA | opencomputers                     | 1.7.4.153         | OpenComputers-MC1.12.2-1.7.4.153.jar                | None                                     |
       | LCHIJA | rftools                           | 7.61              | rftools-1.12-7.61.jar                               | None                                     |
       | LCHIJA | deepresonance                     | 1.7.6             | deepresonance-1.12-1.7.6.jar                        | None                                     |
       | LCHIJA | journeymap                        | 1.12.2-5.5.4      | journeymap-1.12.2-5.5.4.jar                         | None                                     |
       | LCHIJA | defaultoptions                    | 9.2.8             | DefaultOptions_1.12.2-9.2.8.jar                     | None                                     |
       | LCHIJA | diethopper                        | 1.1               | diethopper-1.1.jar                                  | None                                     |
       | LCHIJA | elevatorid                        | 1.3.8             | ElevatorMod-1.12.2-1.3.8.jar                        | None                                     |
       | LCHIJA | enderiobase                       | 5.0.40            | EnderIO-1.12.2-5.0.40.jar                           | None                                     |
       | LCHIJA | enderioconduits                   | 5.0.40            | EnderIO-1.12.2-5.0.40.jar                           | None                                     |
       | LCHIJA | enderioconduitsappliedenergistics | 5.0.40            | EnderIO-1.12.2-5.0.40.jar                           | None                                     |
       | LCHIJA | enderioconduitsopencomputers      | 5.0.40            | EnderIO-1.12.2-5.0.40.jar                           | None                                     |
       | LCHIJA | enderioconduitsrefinedstorage     | 5.0.40            | EnderIO-1.12.2-5.0.40.jar                           | None                                     |
       | LCHIJA | enderiointegrationforestry        | 5.0.40            | EnderIO-1.12.2-5.0.40.jar                           | None                                     |
       | LCHIJA | enderiointegrationticlate         | 5.0.40            | EnderIO-1.12.2-5.0.40.jar                           | None                                     |
       | LCHIJA | ftblib                            | 5.4.1.91          | FTBLib-5.4.1.91.jar                                 | None                                     |
       | LCHIJA | enderiomachines                   | 5.0.40            | EnderIO-1.12.2-5.0.40.jar                           | None                                     |
       | LCHIJA | enderiopowertools                 | 5.0.40            | EnderIO-1.12.2-5.0.40.jar                           | None                                     |
       | LCHIJA | enderstorage                      | 2.4.5.135         | EnderStorage-1.12.2-2.4.5.135-universal.jar         | f1850c39b2516232a2108a7bd84d1cb5df93b261 |
       | LCHIJA | reborncore                        | 3.13.6.424        | RebornCore-1.12.2-3.13.6.424-universal.jar          | 8727a3141c8ec7f173b87aa78b9b9807867c4e6b |
       | LCHIJA | energycontrol                     | 1.12.2-0.1.6      | EnergyControl-1.12.2-0.1.6.jar                      | None                                     |
       | LCHIJA | energyconverters                  | 1.3.7.30          | energyconverters_1.12.2_1.3.7.30.jar                | None                                     |
       | LCHIJA | valkyrielib                       | 1.12.2-2.0.19.1   | valkyrielib-1.12.2-2.0.19.1.jar                     | None                                     |
       | LCHIJA | environmentaltech                 | 1.12.2-2.0.19.1   | environmentaltech-1.12.2-2.0.19.1.jar               | None                                     |
       | LCHIJA | epicsiegemod                      | 13.167            | EpicSiegeMod-13.167.jar                             | None                                     |
       | LCHIJA | mcmultipart                       | 2.5.3             | MCMultiPart-2.5.3.jar                               | None                                     |
       | LCHIJA | mekanism                          | 1.12.2-9.8.3.390  | Mekanism-1.12.2-9.8.3.390.jar                       | None                                     |
       | LCHIJA | railcraft                         | 12.0.0            | railcraft-12.0.0.jar                                | a0c255ac501b2749537d5824bb0f0588bf0320fa |
       | LCHIJA | immersiveengineering              | 0.12-89           | ImmersiveEngineering-0.12-89.jar                    | 4cb49fcde3b43048c9889e0a3d083225da926334 |
       | LCHIJA | exchangers                        | 1.12.2-2.8        | Exchangers-1.12.2-2.8.jar                           | 4ffa87db52cf086d00ecc4853a929367b1c39b5c |
       | LCHIJA | extrabotany                       | 58                | ExtraBotany-r1.1-58r.jar                            | None                                     |
       | LCHIJA | extracells                        | 2.6.5             | ExtraCells-1.12.2-2.6.5.jar                         | None                                     |
       | LCHIJA | extrautils2                       | 1.0               | extrautils2-1.12-1.9.9.jar                          | None                                     |
       | LCHIJA | zerocore                          | 1.12.2-0.1.2.8    | zerocore-1.12.2-0.1.2.8.jar                         | None                                     |
       | LCHIJA | bigreactors                       | 1.12.2-0.4.5.67   | extremereactors-1.12.2-0.4.5.67.jar                 | None                                     |
       | LCHIJA | fastfurnace                       | 1.2.1             | FastFurnace-1.12.2-1.2.1.jar                        | None                                     |
       | LCHIJA | flatcoloredblocks                 | mc1.12-6.6        | flatcoloredblocks-mc1.12-6.6.jar                    | None                                     |
       | LCHIJA | foamfix                           | 0.10.3-1.12.2     | foamfix-0.10.3-1.12.2.jar                           | None                                     |
       | LCHIJA | forgelin                          | 1.8.4             | Forgelin-1.8.4.jar                                  | None                                     |
       | LCHIJA | forgemultipartcbe                 | 2.6.0.79          | ForgeMultipart-1.12.2-2.6.0.79-universal.jar        | f1850c39b2516232a2108a7bd84d1cb5df93b261 |
       | LCHIJA | microblockcbe                     | 2.6.0.79          | ForgeMultipart-1.12.2-2.6.0.79-universal.jar        | None                                     |
       | LCHIJA | minecraftmultipartcbe             | 2.6.0.79          | ForgeMultipart-1.12.2-2.6.0.79-universal.jar        | None                                     |
       | LCHIJA | ftbutilities                      | 5.4.0.87          | FTBUtilities-5.4.0.87.jar                           | None                                     |
       | LCHIJA | ftbbackups                        | 0.0.0.ftbbackups  | FTBUtilitiesBackups-1.0.0.2.jar                     | None                                     |
       | LCHIJA | funkylocomotion                   | 1.0               | funky-locomotion-1.12.2-1.1.2.jar                   | None                                     |
       | LCHIJA | gendustry                         | 1.6.5.8           | gendustry-1.6.5.8-mc1.12.2.jar                      | None                                     |
       | LCHIJA | advgenerators                     | 0.9.20.12         | generators-0.9.20.12-mc1.12.2.jar                   | None                                     |
       | LCHIJA | gravestone                        | 1.10.1            | gravestone-1.10.1.jar                               | None                                     |
       | LCHIJA | gravisuite                        | 3.1.1             | Gravitation+Suite-3.1.1.jar                         | None                                     |
       | LCHIJA | gregtech                          | 1.9.3.531         | gregtech_1.12.2_1.9.3.531.jar                       | None                                     |
       | LCHIJA | guideapi                          | 1.12-2.1.8-63     | Guide-API-1.12-2.1.8-63.jar                         | None                                     |
       | LCHIJA | huds                              | #VERSION#         | Huds-1.12.2-1.0.6.jar                               | None                                     |
       | LCHIJA | ichunutil                         | 7.2.1             | iChunUtil-1.12.2-7.2.1.jar                          | 4db5c2bd1b556f252a5b8b54b256d381b2a0a6b8 |
       | LCHIJA | immersivecables                   | 1.3.2             | ImmersiveCables_1.12.2_1.3.2.jar                    | None                                     |
       | LCHIJA | teslacorelib                      | 1.0.15            | tesla-core-lib-1.12.2-1.0.15.jar                    | d476d1b22b218a10d845928d1665d45fce301b27 |
       | LCHIJA | industrialforegoing               | 1.12.2-1.12.2     | industrialforegoing-1.12.2-1.12.8-232.jar           | None                                     |
       | LCHIJA | industrialwires                   | 1.6-23            | IndustrialWires_1.12.2_1.6_23.jar                   | 7e11c175d1e24007afec7498a1616bef0000027d |
       | LCHIJA | integrateddynamics                | 1.0.8             | IntegratedDynamics-1.12.2-1.0.8.jar                 | bd0353b3e8a2810d60dd584e256e364bc3bedd44 |
       | LCHIJA | integrateddynamicscompat          | 1.0.0             | IntegratedDynamics-1.12.2-1.0.8.jar                 | None                                     |
       | LCHIJA | integratedtunnels                 | 1.6.7             | IntegratedTunnels-1.12.2-1.6.7.jar                  | bd0353b3e8a2810d60dd584e256e364bc3bedd44 |
       | LCHIJA | integratedtunnelscompat           | 1.0.0             | IntegratedTunnels-1.12.2-1.6.7.jar                  | None                                     |
       | LCHIJA | harvestcraft                      | 1.12.2zb          | Pam's HarvestCraft 1.12.2zb.jar                     | None                                     |
       | LCHIJA | integrationforegoing              | 1.12.2-1.9        | IntegrationForegoing-1.12.2-1.9.jar                 | 4ffa87db52cf086d00ecc4853a929367b1c39b5c |
       | LCHIJA | inventorysorter                   | 1.13.3+57         | inventorysorter-1.12.2-1.13.3+57.jar                | None                                     |
       | LCHIJA | ironbackpacks                     | 1.12.2-3.0.8-12   | IronBackpacks-1.12.2-3.0.8-12.jar                   | None                                     |
       | LCHIJA | ironchest                         | 1.12.2-7.0.59.842 | ironchest-1.12.2-7.0.59.842.jar                     | None                                     |
       | LCHIJA | jeibees                           | 0.9.0.5           | jeibees-0.9.0.5-mc1.12.2.jar                        | None                                     |
       | LCHIJA | jeiintegration                    | 1.5.1.36          | jeiintegration_1.12.2-1.5.1.36.jar                  | None                                     |
       | LCHIJA | jee                               | 1.0.8             | JustEnoughEnergistics-1.12.2-1.0.8.jar              | None                                     |
       | LCHIJA | jeresources                       | 0.9.0.52          | JustEnoughResources-1.12.2-0.9.0.52.jar             | None                                     |
       | LCHIJA | llor                              | 1.1.6-mc1.12.2    | LLOverlayReloaded-1.1.6-mc1.12.2.jar                | None                                     |
       | LCHIJA | lostcities                        | 2.0.17            | lostcities-1.12-2.0.17.jar                          | None                                     |
       | LCHIJA | meecreeps                         | 1.2.3             | meecreeps-1.12-1.2.3.jar                            | None                                     |
       | LCHIJA | mekanismgenerators                | 1.12.2-9.8.3.390  | MekanismGenerators-1.12.2-9.8.3.390.jar             | None                                     |
       | LCHIJA | mercurius                         | 1.0.6             | Mercurius-1.12.2.jar                                | None                                     |
       | LCHIJA | mob_grinding_utils                | 0.3.13            | MobGrindingUtils-0.3.13.jar                         | None                                     |
       | LCHIJA | modnametooltip                    | 1.10.0            | modnametooltip_1.12.2-1.10.0.jar                    | None                                     |
       | LCHIJA | monk                              | 1.4               | monk-mod-1.4.jar                                    | None                                     |
       | LCHIJA | morph                             | 7.1.3             | Morph-1.12.2-7.1.3.jar                              | 4db5c2bd1b556f252a5b8b54b256d381b2a0a6b8 |
       | LCHIJA | morpheus                          | 1.12.2-3.5.106    | Morpheus-1.12.2-3.5.106.jar                         | None                                     |
       | LCHIJA | mousetweaks                       | 2.10              | MouseTweaks-2.10-mc1.12.2.jar                       | None                                     |
       | LCHIJA | mrtjpcore                         | 2.1.3.35          | MrTJPCore-1.12.2-2.1.3.35-universal.jar             | None                                     |
       | LCHIJA | mutantbeasts                      | 1.12.2-0.7.1      | MutantBeasts-1.12.2-0.7.1.jar                       | 25e0dcff5b5a7325d7c28898af41ff8b0ba41b77 |
       | LCHIJA | netherportalfix                   | 5.3.17            | NetherPortalFix_1.12.1-5.3.17.jar                   | None                                     |
       | LCHIJA | notenoughwands                    | 1.7.3             | notenoughwands-1.12-1.7.3.jar                       | None                                     |
       | LCHIJA | placebo                           | 1.5.1             | Placebo-1.12.2-1.5.1.jar                            | None                                     |
       | LCHIJA | pneumaticcraft                    | 1.12.2-0.9.3-324  | pneumaticcraft-repressurized-1.12.2-0.9.3-324.jar   | None                                     |
       | LCHIJA | portalgun                         | 7.1.0             | PortalGun-1.12.2-7.1.0.jar                          | 4db5c2bd1b556f252a5b8b54b256d381b2a0a6b8 |
       | LCHIJA | poweradapters                     | 1.0.9             | Power_Adapters_Mod_1.12.2.jar                       | d476d1b22b218a10d845928d1665d45fce301b27 |
       | LCHIJA | projectred-core                   | 4.9.1.92          | ProjectRed-1.12.2-4.9.1.92-Base.jar                 | None                                     |
       | LCHIJA | projectred-compat                 | 1.0               | ProjectRed-1.12.2-4.9.1.92-compat.jar               | None                                     |
       | LCHIJA | projectred-integration            | 4.9.1.92          | ProjectRed-1.12.2-4.9.1.92-integration.jar          | None                                     |
       | LCHIJA | projectred-transmission           | 4.9.1.92          | ProjectRed-1.12.2-4.9.1.92-integration.jar          | None                                     |
       | LCHIJA | projectred-fabrication            | 4.9.1.92          | ProjectRed-1.12.2-4.9.1.92-fabrication.jar          | None                                     |
       | LCHIJA | projectred-illumination           | 4.9.1.92          | ProjectRed-1.12.2-4.9.1.92-lighting.jar             | None                                     |
       | LCHIJA | projectred-expansion              | 4.9.1.92          | ProjectRed-1.12.2-4.9.1.92-mechanical.jar           | None                                     |
       | LCHIJA | projectred-relocation             | 4.9.1.92          | ProjectRed-1.12.2-4.9.1.92-mechanical.jar           | None                                     |
       | LCHIJA | projectred-transportation         | 4.9.1.92          | ProjectRed-1.12.2-4.9.1.92-mechanical.jar           | None                                     |
       | LCHIJA | projectred-exploration            | 4.9.1.92          | ProjectRed-1.12.2-4.9.1.92-world.jar                | None                                     |
       | LCHIJA | quickleafdecay                    | 1.2.4             | QuickLeafDecay-MC1.12.1-1.2.4.jar                   | None                                     |
       | LCHIJA | rangedpumps                       | 0.5               | rangedpumps-0.5.jar                                 | None                                     |
       | LCHIJA | rarmor                            | 1.12.2-2.0.0      | Rarmor_1.12.2_2.0.0.jar                             | None                                     |
       | LCHIJA | rebornstorage                     | 1.0.0             | RebornStorage-1.12.2-3.3.2.79.jar                   | None                                     |
       | LCHIJA | redstonearsenal                   | 2.6.2             | RedstoneArsenal-1.12.2-2.6.2.17-universal.jar       | 8a6abf2cb9e141b866580d369ba6548732eff25f |
       | LCHIJA | refinedstorageaddons              | 0.4.3             | refinedstorageaddons-0.4.3.jar                      | None                                     |
       | LCHIJA | resourceloader                    | 1.5.3             | ResourceLoader-MC1.12.1-1.5.3.jar                   | d72e0dd57935b3e9476212aea0c0df352dd76291 |
       | LCHIJA | rftoolscontrol                    | 1.9.3             | rftoolsctrl-1.12-1.9.3.jar                          | None                                     |
       | LCHIJA | rftoolsdim                        | 5.64              | rftoolsdim-1.12-5.64.jar                            | None                                     |
       | LCHIJA | thermaldynamics                   | 2.5.4             | ThermalDynamics-1.12.2-2.5.4.18-universal.jar       | 8a6abf2cb9e141b866580d369ba6548732eff25f |
       | LCHIJA | simplyjetpacks                    | 2.2.10.63         | SimplyJetpacks2-1.12.2-2.2.10.63.jar                | None                                     |
       | LCHIJA | storagedrawers                    | 1.12-5.3.5        | StorageDrawers-1.12.2-5.3.8.jar                     | None                                     |
       | LCHIJA | storagedrawersextra               | @VERSION@         | StorageDrawersExtras-1.12-3.1.0.jar                 | None                                     |
       | LCHIJA | tatw                              | 1.0.1.2.b27       | Tatw-1.12.2-1.0.1.2.b27.jar                         | dfbfe4c473253d8c5652417689848f650b2cbe32 |
       | LCHIJA | thermalcultivation                | 0.3.2             | ThermalCultivation-1.12.2-0.3.2.11-universal.jar    | 8a6abf2cb9e141b866580d369ba6548732eff25f |
       | LCHIJA | thermalinnovation                 | 0.3.2             | ThermalInnovation-1.12.2-0.3.2.11-universal.jar     | 8a6abf2cb9e141b866580d369ba6548732eff25f |
       | LCHIJA | tipthescales                      | 1.0.3             | TipTheScales-1.12.2-1.0.3.jar                       | None                                     |
       | LCHIJA | toastcontrol                      | 1.8.0             | Toast Control-1.12.2-1.8.0.jar                      | None                                     |
       | LCHIJA | topaddons                         | 1.12.2-1.10.1     | topaddons-1.12.2-1.10.1.jar                         | None                                     |
       | LCHIJA | universalmodifiers                | 1.12.2-1.0.16.1   | valkyrielib-1.12.2-2.0.19.1.jar                     | None                                     |
       | LCHIJA | vanillafix                        | 1.0.10-150        | VanillaFix-1.0.10-150.jar                           | None                                     |
       | LCHIJA | wanionlib                         | 1.12.2-2.2        | WanionLib-1.12.2-2.2.jar                            | None                                     |
       | LCHIJA | wawla                             | 2.6.275           | Wawla-1.12.2-2.6.275.jar                            | d476d1b22b218a10d845928d1665d45fce301b27 |
       | LCHIJA | wct                               | 3.11.88           | WirelessCraftingTerminal-1.12.2-3.11.88.jar         | None                                     |
       | LCHIJA | xnet                              | 1.7.6             | xnet-1.12-1.7.6.jar                                 | None                                     |
       | LCHIJA | betteranimalsplus                 | 9.0.1             | betteranimalsplus-1.12.2-9.0.1.jar                  | None                                     |
       | LCHIJA | reauth                            | 3.6.0             | reauth-3.6.0.jar                                    | daba0ec4df71b6da841768c49fb873def208a1e3 |
       | LCHIJA | eleccoreloader                    | 1.9.453           | ElecCore-1.12.2-1.9.453.jar                         | None                                     |
       | LCHIJA | mysticallib                       | 1.12.2-1.1.1      | mysticallib-1.12.2-1.1.1.jar                        | None                                     |
       | LCHIJA | teslacorelib_registries           | 1.0.15            | tesla-core-lib-1.12.2-1.0.15.jar                    | None                                     |
       | LCHIJA | unidict                           | 1.12.2-2.9.2      | UniDict-1.12.2-2.9.2.jar                            | None                                     |
  Loaded coremods (and transformers): IELoadingPlugin (ImmersiveEngineering-core-0.12-89.jar)
                                        blusunrize.immersiveengineering.common.asm.IEClassTransformer
                                      VanillaFixLoadingPlugin (VanillaFix-1.0.10-150.jar)
                                        
                                      GTCELoadingPlugin (gregtech_1.12.2_1.9.3.531.jar)
                                        gregtech.common.asm.GTCETransformer
                                      ForgelinPlugin (Forgelin-1.8.4.jar)
                                        
                                      MekanismCoremod (Mekanism-1.12.2-9.8.3.390.jar)
                                        mekanism.coremod.KeybindingMigrationHelper
                                      Do not report to Forge! (If you haven't disabled the FoamFix coremod, try disabling it in the config! Note that this bit of text will still appear.) (foamfix-0.10.3-1.12.2.jar)
                                        pl.asie.foamfix.coremod.FoamFixTransformer
                                      LoadingPlugin (ResourceLoader-MC1.12.1-1.5.3.jar)
                                        lumien.resourceloader.asm.ClassTransformer
                                      TransformerLoader (OpenComputers-MC1.12.2-1.7.4.153.jar)
                                        li.cil.oc.common.asm.ClassTransformer
                                      EnderCorePlugin (EnderCore-1.12.2-0.5.45.jar)
                                        com.enderio.core.common.transform.EnderCoreTransformer
                                        com.enderio.core.common.transform.SimpleMixinPatcher
                                      CoreMod (Aroma1997Core-1.12.2-2.0.0.2.jar)
                                        
                                      CTMCorePlugin (CTM-MC1.12.2-0.3.3.22.jar)
                                        team.chisel.ctm.client.asm.CTMTransformer
                                      LoadingPlugin (ChunkAnimator-MC1.12-1.2.jar)
                                        lumien.chunkanimator.asm.ClassTransformer
  AE2 Version: stable rv6-stable-6 for Forge 14.23.5.2768
  Pulsar/tconstruct loaded Pulses: - TinkerCommons (Enabled/Forced)
                                   - TinkerWorld (Enabled/Not Forced)
                                   - TinkerTools (Enabled/Not Forced)
                                   - TinkerHarvestTools (Enabled/Forced)
                                   - TinkerMeleeWeapons (Enabled/Forced)
                                   - TinkerRangedWeapons (Enabled/Forced)
                                   - TinkerModifiers (Enabled/Forced)
                                   - TinkerSmeltery (Enabled/Not Forced)
                                   - TinkerGadgets (Enabled/Not Forced)
                                   - TinkerOredict (Enabled/Forced)
                                   - TinkerIntegration (Enabled/Forced)
                                   - TinkerFluids (Enabled/Forced)
                                   - TinkerMaterials (Enabled/Forced)
                                   - TinkerModelRegister (Enabled/Forced)
                                   - chiselIntegration (Enabled/Not Forced)
                                   - chiselsandbitsIntegration (Enabled/Not Forced)
                                   - wailaIntegration (Enabled/Not Forced)
                                   - theoneprobeIntegration (Enabled/Not Forced)
  List of loaded APIs: * actuallyadditionsapi (34) from ActuallyAdditions-1.12.2-r146.jar
                       * ae2wtlib|api (1.1) from AE2WTLib-1.12.2-1.0.6.jar
                       * apAPI (3) from additionalpipes-6.0.0.8.jar
                       * appliedenergistics2|API (rv6) from appliedenergistics2-rv6-stable-6.jar
                       * Baubles|API (1.4.0.2) from AE2WTLib-1.12.2-1.0.6.jar
                       * betteradvancements|API (0.1.0.77) from BetterAdvancements-1.12.2-0.1.0.77.jar
                       * BetterWithModsAPI (Beta 0.6) from AppleSkin-mc1.12-1.0.9.jar
                       * bigreactors|API (4.0.1) from extremereactors-1.12.2-0.4.5.67.jar
                       * BotaniaAPI (92) from Botania r1.10-360.jar
                       * buildcraftapi_blocks (1.0) from buildcraft-all-7.99.24.6.jar
                       * buildcraftapi_boards (2.0) from buildcraft-all-7.99.24.6.jar
                       * buildcraftapi_core (2.2) from buildcraft-all-7.99.24.6.jar
                       * buildcraftapi_crops (1.1) from buildcraft-all-7.99.24.6.jar
                       * buildcraftapi_enums (1.0) from buildcraft-all-7.99.24.6.jar
                       * buildcraftapi_events (2.0) from buildcraft-all-7.99.24.6.jar
                       * buildcraftapi_facades (1.1) from buildcraft-all-7.99.24.6.jar
                       * buildcraftapi_filler (5.0) from buildcraft-all-7.99.24.6.jar
                       * buildcraftapi_fuels (2.0) from buildcraft-all-7.99.24.6.jar
                       * buildcraftapi_gates (4.1) from buildcraft-all-7.99.24.6.jar
                       * buildcraftapi_items (1.1) from buildcraft-all-7.99.24.6.jar
                       * buildcraftapi_library (2.0) from buildcraft-all-7.99.24.6.jar
                       * buildcraftapi_lists (1.0) from buildcraft-all-7.99.24.6.jar
                       * buildcraftapi_power (1.3) from buildcraft-all-7.99.24.6.jar
                       * buildcraftapi_recipes (3.0) from buildcraft-all-7.99.24.6.jar
                       * buildcraftapi_robotics (3.0) from buildcraft-all-7.99.24.6.jar
                       * buildcraftapi_statements (1.1) from buildcraft-all-7.99.24.6.jar
                       * buildcraftapi_tiles (1.2) from buildcraft-all-7.99.24.6.jar
                       * buildcraftapi_tools (1.0) from buildcraft-all-7.99.24.6.jar
                       * buildcraftapi_transport (5.0) from buildcraft-all-7.99.24.6.jar
                       * Chisel-API (0.0.1) from Chisel-MC1.12.2-0.2.1.35.jar
                       * ChiselAPI|Carving (0.0.1) from Chisel-MC1.12.2-0.2.1.35.jar
                       * ChiselsAndBitsAPI (14.25.0) from chiselsandbits-14.31.jar
                       * cofhapi (2.5.0) from CoFHCore-1.12.2-4.6.2.25-universal.jar
                       * commoncapabilities|api (0.0.1) from CommonCapabilities-1.12.2-2.1.0.jar
                       * ctm-api (0.1.0) from CTM-MC1.12.2-0.3.3.22.jar
                       * ctm-api-events (0.1.0) from CTM-MC1.12.2-0.3.3.22.jar
                       * ctm-api-models (0.1.0) from CTM-MC1.12.2-0.3.3.22.jar
                       * ctm-api-textures (0.1.0) from CTM-MC1.12.2-0.3.3.22.jar
                       * ctm-api-utils (0.1.0) from CTM-MC1.12.2-0.3.3.22.jar
                       * DR-API (1.0.4-Beta) from deepresonance-1.12-1.7.6.jar
                       * ElecCoreAPI (1.0.0) from ElecCore-1.12.2-1.9.453.jar
                       * enderioapi (4.0.0) from EnderIO-1.12.2-5.0.40.jar
                       * enderioapi|addon (4.0.0) from EnderIO-1.12.2-5.0.40.jar
                       * enderioapi|capacitor (4.0.0) from EnderIO-1.12.2-5.0.40.jar
                       * enderioapi|conduits (4.0.0) from EnderIO-1.12.2-5.0.40.jar
                       * enderioapi|farm (4.0.0) from EnderIO-1.12.2-5.0.40.jar
                       * enderioapi|redstone (4.0.0) from EnderIO-1.12.2-5.0.40.jar
                       * enderioapi|teleport (4.0.0) from EnderIO-1.12.2-5.0.40.jar
                       * enderioapi|tools (4.0.0) from EnderIO-1.12.2-5.0.40.jar
                       * enderioapi|upgrades (4.0.0) from EnderIO-1.12.2-5.0.40.jar
                       * EpicSiegeMod|API (1.0) from EpicSiegeMod-13.167.jar
                       * ForestryAPI|apiculture (5.0.0) from forestry_1.12.2-5.8.2.387.jar
                       * ForestryAPI|arboriculture (4.3.0) from forestry_1.12.2-5.8.2.387.jar
                       * ForestryAPI|book (5.8.1) from forestry_1.12.2-5.8.2.387.jar
                       * ForestryAPI|circuits (3.1.0) from forestry_1.12.2-5.8.2.387.jar
                       * ForestryAPI|climate (5.0.0) from forestry_1.12.2-5.8.2.387.jar
                       * ForestryAPI|core (5.7.0) from forestry_1.12.2-5.8.2.387.jar
                       * ForestryAPI|farming (5.8.0) from forestry_1.12.2-5.8.2.387.jar
                       * ForestryAPI|food (1.1.0) from forestry_1.12.2-5.8.2.387.jar
                       * ForestryAPI|fuels (3.0.0) from forestry_1.12.2-5.8.2.387.jar
                       * ForestryAPI|genetics (5.7.0) from forestry_1.12.2-5.8.2.387.jar
                       * ForestryAPI|gui (5.8.0) from forestry_1.12.2-5.8.2.387.jar
                       * ForestryAPI|hives (4.1.0) from forestry_1.12.2-5.8.2.387.jar
                       * ForestryAPI|lepidopterology (1.4.0) from forestry_1.12.2-5.8.2.387.jar
                       * ForestryAPI|mail (3.1.0) from forestry_1.12.2-5.8.2.387.jar
                       * ForestryAPI|modules (5.7.0) from forestry_1.12.2-5.8.2.387.jar
                       * ForestryAPI|multiblock (3.0.0) from forestry_1.12.2-5.8.2.387.jar
                       * ForestryAPI|recipes (5.4.0) from forestry_1.12.2-5.8.2.387.jar
                       * ForestryAPI|storage (5.0.0) from forestry_1.12.2-5.8.2.387.jar
                       * ForestryAPI|world (2.1.0) from forestry_1.12.2-5.8.2.387.jar
                       * funkylocomotion_api (2.0) from funky-locomotion-1.12.2-1.1.2.jar
                       * gendustryAPI (2.3.0) from gendustry-1.6.5.8-mc1.12.2.jar
                       * Guide-API|API (2.0.0) from Guide-API-1.12-2.1.8-63.jar
                       * iChunUtil API (1.2.0) from iChunUtil-1.12.2-7.2.1.jar
                       * ImmersiveEngineering|API (1.0) from ImmersiveEngineering-0.12-89.jar
                       * ImmersiveEngineering|ImmersiveFluxAPI (1.0) from ImmersiveEngineering-0.12-89.jar
                       * industrialforegoingapi (5) from industrialforegoing-1.12.2-1.12.8-232.jar
                       * integrateddynamics|api (0.2.0) from IntegratedDynamics-1.12.2-1.0.8.jar
                       * jeresources|API (0.9.0.52) from JustEnoughResources-1.12.2-0.9.0.52.jar
                       * journeymap|client-api (1.4) from journeymap-1.12.2-5.5.4.jar
                       * journeymap|client-api-display (1.4) from journeymap-1.12.2-5.5.4.jar
                       * journeymap|client-api-event (1.4) from journeymap-1.12.2-5.5.4.jar
                       * journeymap|client-api-model (1.4) from journeymap-1.12.2-5.5.4.jar
                       * journeymap|client-api-util (1.4) from journeymap-1.12.2-5.5.4.jar
                       * JustEnoughItemsAPI (4.13.0) from jei_1.12.2-4.15.0.268.jar
                       * MekanismAPI|core (9.8.1) from Mekanism-1.12.2-9.8.3.390.jar
                       * MekanismAPI|energy (9.8.1) from Mekanism-1.12.2-9.8.3.390.jar
                       * MekanismAPI|gas (9.8.1) from Mekanism-1.12.2-9.8.3.390.jar
                       * MekanismAPI|infuse (9.8.1) from Mekanism-1.12.2-9.8.3.390.jar
                       * MekanismAPI|laser (9.8.1) from Mekanism-1.12.2-9.8.3.390.jar
                       * MekanismAPI|transmitter (9.8.1) from Mekanism-1.12.2-9.8.3.390.jar
                       * MekanismAPI|util (9.0.0) from Mekanism-1.12.2-9.8.3.390.jar
                       * MouseTweaks|API (1.0) from MouseTweaks-2.10-mc1.12.2.jar
                       * opencomputersapi|component (7.0.0-alpha) from OpenComputers-MC1.12.2-1.7.4.153.jar
                       * opencomputersapi|core (7.0.0-alpha) from OpenComputers-MC1.12.2-1.7.4.153.jar
                       * opencomputersapi|driver (7.0.0-alpha) from OpenComputers-MC1.12.2-1.7.4.153.jar
                       * opencomputersapi|driver|item (7.0.0-alpha) from OpenComputers-MC1.12.2-1.7.4.153.jar
                       * opencomputersapi|event (7.0.0-alpha) from OpenComputers-MC1.12.2-1.7.4.153.jar
                       * opencomputersapi|filesystem (7.0.0-alpha) from OpenComputers-MC1.12.2-1.7.4.153.jar
                       * opencomputersapi|internal (7.0.0-alpha) from OpenComputers-MC1.12.2-1.7.4.153.jar
                       * opencomputersapi|machine (7.0.0-alpha) from OpenComputers-MC1.12.2-1.7.4.153.jar
                       * opencomputersapi|manual (7.0.0-alpha) from OpenComputers-MC1.12.2-1.7.4.153.jar
                       * opencomputersapi|network (7.0.0-alpha) from OpenComputers-MC1.12.2-1.7.4.153.jar
                       * opencomputersapi|prefab (7.0.0-alpha) from OpenComputers-MC1.12.2-1.7.4.153.jar
                       * PneumaticCraftApi (1.1) from pneumaticcraft-repressurized-1.12.2-0.9.3-324.jar
                       * ProjectEAPI (1.9.4-1.0.0) from p455w0rdslib-1.12.2-2.0.36.jar
                       * projectred|api (2.0) from ProjectRed-1.12.2-4.9.1.92-Base.jar
                       * railcraft:api_carts (3.0.0) from railcraft-12.0.0.jar
                       * railcraft:api_charge (4.0.0) from railcraft-12.0.0.jar
                       * railcraft:api_core (3.2.0) from railcraft-12.0.0.jar
                       * railcraft:api_crafting (4.0.0) from railcraft-12.0.0.jar
                       * railcraft:api_events (2.0.0) from railcraft-12.0.0.jar
                       * railcraft:api_fuel (2.0.0) from railcraft-12.0.0.jar
                       * railcraft:api_helpers (2.0.0) from railcraft-12.0.0.jar
                       * railcraft:api_items (2.4.0) from railcraft-12.0.0.jar
                       * railcraft:api_signals (4.0.0) from railcraft-12.0.0.jar
                       * railcraft:api_tracks (5.1.1) from railcraft-12.0.0.jar
                       * rarmorapi (1) from Rarmor_1.12.2_2.0.0.jar
                       * reborncoreAPI (3.13.6.424) from RebornCore-1.12.2-3.13.6.424-universal.jar
                       * reborncoreAPI|Power (3.13.6.424) from RebornCore-1.12.2-3.13.6.424-universal.jar
                       * reborncoreAPI|Recipe (3.13.6.424) from RebornCore-1.12.2-3.13.6.424-universal.jar
                       * reborncoreAPI|Tile (3.13.6.424) from RebornCore-1.12.2-3.13.6.424-universal.jar
                       * redstonefluxapi (2.1.0) from RedstoneFlux-1.12-2.1.0.6-universal.jar
                       * StorageDrawersAPI (2.1.0) from StorageDrawers-1.12.2-5.3.8.jar
                       * StorageDrawersAPI|event (2.1.0) from StorageDrawers-1.12.2-5.3.8.jar
                       * StorageDrawersAPI|registry (2.1.0) from StorageDrawers-1.12.2-5.3.8.jar
                       * StorageDrawersAPI|render (2.1.0) from StorageDrawers-1.12.2-5.3.8.jar
                       * StorageDrawersAPI|storage (2.1.0) from StorageDrawers-1.12.2-5.3.8.jar
                       * StorageDrawersAPI|storage-attribute (2.1.0) from StorageDrawers-1.12.2-5.3.8.jar
                       * Thaumcraft|API (6.0.2) from railcraft-12.0.0.jar
                       * theoneprobe_api (1.4.4) from theoneprobe-1.12-1.4.28.jar
                       * valkyrielib.api (1.12.2-2.0.10a) from valkyrielib-1.12.2-2.0.19.1.jar
                       * WailaAPI (1.3) from Hwyla-1.8.26-B41_1.12.2.jar
                       * wct|api (1.1) from WirelessCraftingTerminal-1.12.2-3.11.88.jar
                       * zerocore|API|multiblock (1.10.2-0.0.2) from zerocore-1.12.2-0.1.2.8.jar
                       * zerocore|API|multiblock|rectangular (1.10.2-0.0.2) from zerocore-1.12.2-0.1.2.8.jar
                       * zerocore|API|multiblock|tier (1.10.2-0.0.2) from zerocore-1.12.2-0.1.2.8.jar
                       * zerocore|API|multiblock|validation (1.10.2-0.0.2) from zerocore-1.12.2-0.1.2.8.jar
  RebornCore: Plugin Engine: 0
              RebornCore Version: 3.13.6.424
              Runtime Debofucsation 1
              RenderEngine: 1
  Ender IO: Found the following problem(s) with your installation (That does NOT mean that Ender IO caused the crash or was involved in it in any way. We add this information to help finding common problems, not as an invitation to post any crash you encounter to Ender IO's issue tracker. Always check the stack trace above to see which mod is most likely failing.):
                              * Optifine is installed. This is NOT supported.
                             This may (look up the meaning of 'may' in the dictionary if you're not sure what it means) have caused the error. Try reproducing the crash WITHOUT this/these mod(s) before reporting it.
            
            !!!!!!!!!!!!!!!!!!!!!!!!!!!!!!!!!!!!!!!!!!!!!!!!!!!!!!!!!!!!!!!!!!!!!!!!!!!!!!
            !!!You are looking at the diagnostics information, not at the crash.       !!!
            !!!Scroll up until you see the line with '---- Minecraft Crash Report ----'!!!
            !!!!!!!!!!!!!!!!!!!!!!!!!!!!!!!!!!!!!!!!!!!!!!!!!!!!!!!!!!!!!!!!!!!!!!!!!!!!!!
  AE2 Integration: IC2:ON, RC:ON, MFR:OFF, Waila:ON, InvTweaks:OFF, JEI:ON, Mekanism:ON, OpenComputers:ON, THE_ONE_PROBE:ON, TESLA:ON, CRAFTTWEAKER:ON
  Suspected Mods: Unknown
